this is the code button were you can click the delete function.there's a trash icon then if you click if it must says that are you sure you want to delete this record then if i click yes the specific row must deleted in the table in the system and also in the database
    <a href="#deleteordinance<?php echo $row['additive_id'];?>" data-target="#deleteordinance<?php echo $row['additive_id'];?>" data-toggle="modal" style="color:#fff;" class="delbutton"><i class="glyphicon glyphicon-trash text-green"></i></a>

this is my code in additive_delete.php
<?php

include "../../functions/connect.php";

if($_GET['additive_id'])
{
    $id=$_GET['additive_id'];
    $sql = "DELETE FROM additive WHERE additive_id='$id'";
    mysql_query( $sql);
}

?>

this is my code for confirm statement 
<script type="text/javascript">

$(function() {

    $(".delbutton").click(function(){

        //Save the link in a variable called element
        var element = $(this);

        //Find the id of the link that was clicked
        var del_id = element.attr("additive_id");

        //Built a url to send
        var info = 'additive_id=' + del_id;
        if(confirm("Are you sure you want to delete this Record?"))
        {
            $.ajax({
                type: "GET",
                url: "additive_delete.php",
                data: info,
                success: function(){}
            });

            $(this).parents("#rec").animate({ backgroundColor: "#fbc7c7" },"fast").animate({ opacity: "hide" }, "slow");
        }

        return false;

    }); 

});

</script>

